// Jest Snapshot v1, https://goo.gl/fbAQLP

exports[`get fake card id=123 is Clara Keebler 1`] = `
Object {
  "accountHistory": Array [
    Object {
      "account": "48564414",
      "amount": "781.00",
      "business": "Grant, Pfannerstill and Haag",
      "date": 2012-02-02T00:00:00.000Z,
      "name": "Personal Loan Account 6411",
      "type": "payment",
    },
    Object {
      "account": "31907153",
      "amount": "48.03",
      "business": "Moen, Mann and Gleason",
      "date": 2012-02-02T00:00:00.000Z,
      "name": "Checking Account 8558",
      "type": "withdrawal",
    },
    Object {
      "account": "10041630",
      "amount": "751.65",
      "business": "Block - Paucek",
      "date": 2012-02-02T00:00:00.000Z,
      "name": "Auto Loan Account 2869",
      "type": "invoice",
    },
  ],
  "address": Object {
    "city": "Lake Nakia",
    "country": "Guernsey",
    "geo": Object {
      "lat": "23.5757",
      "lng": "95.7586",
    },
    "state": "New Mexico",
    "streetA": "Jayde Rapids",
    "streetB": "34367 Frami Haven",
    "streetC": "63576 Daniel Estates Apt. 575",
    "streetD": "Apt. 628",
    "zipcode": "43633-2229",
  },
  "company": Object {
    "bs": "benchmark efficient infrastructures",
    "catchPhrase": "Open-architected hybrid implementation",
    "name": "Trantow, Pouros and Welch",
  },
  "email": "Jennings_Kassulke41@hotmail.com",
  "name": "Clara Keebler",
  "phone": "(840) 514-1403",
  "posts": Array [
    Object {
      "paragraph": "Enim tempore non voluptas quia vitae ipsam. Necessitatibus et dolor adipisci dolores sunt non explicabo occaecati. Nesciunt et sint est asperiores sit voluptatum mollitia enim iste. Nesciunt minima sequi voluptas optio aut voluptatem. Eligendi voluptates iste eius iure commodi molestiae. Voluptas quo ex reprehenderit ipsa incidunt corporis vel in.",
      "sentence": "Nobis et sint magnam aut atque.",
      "sentences": "Incidunt occaecati iusto laborum facere quia deleniti dolorem quibusdam id. Perspiciatis et nisi aut corporis. Esse est soluta accusamus officiis. Excepturi blanditiis libero ut qui.",
      "words": "corporis voluptatem dolores",
    },
    Object {
      "paragraph": "Nulla exercitationem omnis illum. Natus eum cum ipsam consequatur ex accusamus ipsum quam. Inventore laboriosam deleniti omnis occaecati culpa culpa occaecati nemo. Et doloribus expedita. Ut quia ut nostrum ducimus occaecati veniam ut exercitationem voluptatibus.",
      "sentence": "Consequatur ex quidem omnis inventore deserunt ipsa eligendi officiis voluptatem.",
      "sentences": "Omnis labore consequatur nisi officiis excepturi. Nam omnis odit. Magni rerum quia praesentium.",
      "words": "unde nihil iste",
    },
    Object {
      "paragraph": "Accusantium exercitationem illum. Et similique illo blanditiis et facere rem quod molestias ab. Impedit aliquam quo vel dolorem consequatur.",
      "sentence": "Sint aut aliquid qui harum minus officiis.",
      "sentences": "Animi maiores et aliquid. Dolorem beatae et molestiae consequatur sed rerum qui voluptates unde.",
      "words": "error quaerat porro",
    },
  ],
  "username": "Danielle_Pollich",
  "website": "sienna.info",
}
`;

exports[`get fake card id=500 is Frank Lebsack 1`] = `
Object {
  "accountHistory": Array [
    Object {
      "account": "28300414",
      "amount": "987.51",
      "business": "Volkman, Moen and Schmeler",
      "date": 2012-02-02T00:00:00.000Z,
      "name": "Investment Account 6478",
      "type": "deposit",
    },
    Object {
      "account": "97441016",
      "amount": "669.42",
      "business": "Brown Inc",
      "date": 2012-02-02T00:00:00.000Z,
      "name": "Personal Loan Account 6810",
      "type": "payment",
    },
    Object {
      "account": "13248083",
      "amount": "250.15",
      "business": "Paucek - Runolfsson",
      "date": 2012-02-02T00:00:00.000Z,
      "name": "Auto Loan Account 2051",
      "type": "withdrawal",
    },
  ],
  "address": Object {
    "city": "Pollichport",
    "country": "Vanuatu",
    "geo": Object {
      "lat": "-83.4368",
      "lng": "79.3498",
    },
    "state": "Tennessee",
    "streetA": "Corwin Islands",
    "streetB": "2368 Tremblay Bypass",
    "streetC": "73042 Koelpin Unions Suite 209",
    "streetD": "Apt. 485",
    "zipcode": "96993-5966",
  },
  "company": Object {
    "bs": "reinvent ubiquitous communities",
    "catchPhrase": "Phased empowering monitoring",
    "name": "Olson Inc",
  },
  "email": "Hugh49@gmail.com",
  "name": "Frank Lebsack",
  "phone": "1-487-512-9541 x9181",
  "posts": Array [
    Object {
      "paragraph": "Rem recusandae in voluptates debitis aut molestias quod. Facere quia nisi sapiente doloribus omnis. Nemo quia eius dolor in illum ipsum. Quis tempore in et aspernatur reiciendis et nisi.",
      "sentence": "Dolores fugit assumenda autem sunt.",
      "sentences": "Est ut expedita rerum provident minima maxime magnam. Iusto nisi est et aut enim illo recusandae et.",
      "words": "tenetur ea dolorem",
    },
    Object {
      "paragraph": "Cum qui eos nam labore. Dolor est sit nobis non adipisci voluptate asperiores et. Labore asperiores non eius sit optio et voluptatum sapiente veniam. Atque molestiae necessitatibus voluptatem facilis. Nesciunt ut nam harum eaque quod iure aliquam.",
      "sentence": "Nisi asperiores quibusdam in occaecati.",
      "sentences": "Quisquam eum quo est molestias voluptatum omnis iste ut. Fuga aut sapiente praesentium. Aut aperiam eius voluptatem vitae. Fugiat et eum ut unde fugit nulla voluptates autem et. Omnis et eligendi nihil ut.",
      "words": "asperiores asperiores et",
    },
    Object {
      "paragraph": "Accusamus quos est tempore ut voluptatem ipsum aut. Perspiciatis sequi tenetur veniam unde molestiae sapiente possimus veritatis. Distinctio molestiae sit et magni debitis blanditiis. Perspiciatis minus voluptatem illo porro eius quia.",
      "sentence": "Quis quisquam unde dolores cupiditate.",
      "sentences": "Autem repudiandae ab. Animi reprehenderit asperiores aut nihil voluptatibus tempore perspiciatis. Quis optio rerum velit in necessitatibus. Qui aut dolore officiis libero ea velit mollitia perferendis. Est adipisci temporibus autem accusamus. Sint est recusandae nesciunt quo.",
      "words": "dolores eos nesciunt",
    },
  ],
  "username": "Manuel_Bayer",
  "website": "joaquin.biz",
}
`;
